
Running Job 1 of 1 C6H6.inp
qchem C6H6.inp_21184.0 /home/pierre-alex/qchem_scratch//home/pierre-alex/qchem_scratch// 0
/home/pierre-alex/qchem/exe/qcprog.exe_s C6H6.inp_21184.0 /home/pierre-alex/qchem_scratch//home/pierre-alex/qchem_scratch//
                  Welcome to Q-Chem
     A Quantum Leap Into The Future Of Chemistry


 Q-Chem 5.4, Q-Chem, Inc., Pleasanton, CA (2021)

 E. Epifanovsky,  A. T. B. Gilbert,  Xintian Feng,  Joonho Lee,  Yuezhi Mao,  
 N. Mardirossian,  P. Pokhilko,  A. White,  M. Wormit,  M. P. Coons,  
 A. L. Dempwolff,  Zhengting Gan,  D. Hait,  P. R. Horn,  L. D. Jacobson,  
 I. Kaliman,  J. Kussmann,  A. W. Lange,  Ka Un Lao,  D. S. Levine,  Jie Liu,  
 S. C. McKenzie,  A. F. Morrison,  K. Nanda,  F. Plasser,  D. R. Rehn,  
 M. L. Vidal,  Zhi-Qiang You,  Ying Zhu,  B. Alam,  B. Albrecht,  
 A. Aldossary,  E. Alguire,  J. H. Andersen,  D. Barton,  K. Begam,  A. Behn,  
 Y. A. Bernard,  E. J. Berquist,  H. Burton,  A. Carreras,  K. Carter-Fenk,  
 R. Chakraborty,  A. D. Chien,  K. D. Closser,  V. Cofer-Shabica,  
 S. Dasgupta,  Jia Deng,  M. de Wergifosse,  M. Diedenhofen,  Hainam Do,  
 S. Ehlert,  Po-Tung Fang,  S. Fatehi,  Qingguo Feng,  J. Gayvert,  
 Qinghui Ge,  G. Gidofalvi,  M. Goldey,  J. Gomes,  C. Gonzalez-Espinoza,  
 S. Gulania,  A. Gunina,  M. W. D. Hanson-Heine,  P. H. P. Harbach,  
 A. W. Hauser,  M. F. Herbst,  M. Hernandez Vera,  M. Hodecker,  
 Z. C. Holden,  S. Houck,  Xunkun Huang,  Kerwin Hui,  B. C. Huynh,  
 M. Ivanov,  Hyunjun Ji,  Hanjie Jiang,  B. Kaduk,  S. Kaehler,  
 K. Khistyaev,  Jaehoon Kim,  P. Klunzinger,  Z. Koczor-Benda,  
 Joong Hoon Koh,  D. Kosenkov,  L. Koulias,  T. Kowalczyk,  C. M. Krauter,  
 K. Kue,  A. Kunitsa,  T. Kus,  A. Landau,  K. V. Lawler,  D. Lefrancois,  
 S. Lehtola,  Rain Li,  Yi-Pei Li,  Jiashu Liang,  M. Liebenthal,  
 Hung-Hsuan Lin,  You-Sheng Lin,  Fenglai Liu,  Kuan-Yu Liu,  
 M. Loipersberger,  A. Luenser,  A. Manjanath,  P. Manohar,  E. Mansoor,  
 S. F. Manzer,  Shan-Ping Mao,  A. V. Marenich,  T. Markovich,  S. Mason,  
 S. A. Maurer,  P. F. McLaughlin,  M. F. S. J. Menger,  J.-M. Mewes,  
 S. A. Mewes,  P. Morgante,  J. W. Mullinax,  T. S. Nguyen-Beck,  
 K. J. Oosterbaan,  G. Paran,  Alexander C. Paul,  Suranjan K. Paul,  
 F. Pavosevic,  Zheng Pei,  S. Prager,  E. I. Proynov,  E. Ramos,  B. Rana,  
 A. E. Rask,  A. Rettig,  R. M. Richard,  F. Rob,  E. Rossomme,  T. Scheele,  
 M. Scheurer,  M. Schneider,  N. Sergueev,  S. M. Sharada,  W. Skomorowski,  
 D. W. Small,  C. J. Stein,  Yu-Chuan Su,  E. J. Sundstrom,  Zhen Tao,  
 J. Thirman,  T. Tsuchimochi,  N. M. Tubman,  S. P. Veccham,  O. Vydrov,  
 J. Wenzel,  J. Witte,  A. Yamada,  Kun Yao,  S. Yeganeh,  S. R. Yost,  
 A. Zech,  Igor Ying Zhang,  Xing Zhang,  Yu Zhang,  D. Zuev,  
 A. Aspuru-Guzik,  A. T. Bell,  N. A. Besley,  K. B. Bravaya,  B. R. Brooks,  
 D. Casanova,  Jeng-Da Chai,  S. Coriani,  C. J. Cramer,  
 A. E. DePrince, III,  R. A. DiStasio Jr.,  A. Dreuw,  B. D. Dunietz,  
 T. R. Furlani,  W. A. Goddard III,  S. Grimme,  S. Hammes-Schiffer,  
 T. Head-Gordon,  W. J. Hehre,  Chao-Ping Hsu,  T.-C. Jagau,  Yousung Jung,  
 A. Klamt,  Jing Kong,  D. S. Lambrecht,  WanZhen Liang,  N. J. Mayhall,  
 C. W. McCurdy,  J. B. Neaton,  C. Ochsenfeld,  J. A. Parkhill,  R. Peverati,  
 V. A. Rassolov,  Yihan Shao,  L. V. Slipchenko,  T. Stauch,  R. P. Steele,  
 J. E. Subotnik,  A. J. W. Thom,  A. Tkatchenko,  D. G. Truhlar,  
 T. Van Voorhis,  T. A. Wesolowski,  K. B. Whaley,  H. L. Woodcock III,  
 P. M. Zimmerman,  S. Faraji,  P. M. W. Gill,  M. Head-Gordon,  
 J. M. Herbert,  A. I. Krylov

 Contributors to earlier versions of Q-Chem not listed above: 
 R. D. Adamson,  B. Austin,  R. Baer,  J. Baker,  G. J. O. Beran,  
 K. Brandhorst,  S. T. Brown,  E. F. C. Byrd,  A. K. Chakraborty,  
 G. K. L. Chan,  Chun-Min Chang,  Yunqing Chen,  C.-L. Cheng,  
 Siu Hung Chien,  D. M. Chipman,  D. L. Crittenden,  H. Dachsel,  
 R. J. Doerksen,  A. D. Dutoi,  R. G. Edgar,  J. Fosso-Tande,  
 L. Fusti-Molnar,  D. Ghosh,  A. Ghysels,  A. Golubeva-Zadorozhnaya,  
 J. Gonthier,  M. S. Gordon,  S. R. Gwaltney,  G. Hawkins,  J. E. Herr,  
 A. Heyden,  S. Hirata,  E. G. Hohenstein,  G. Kedziora,  F. J. Keil,  
 C. Kelley,  Jihan Kim,  R. A. King,  R. Z. Khaliullin,  P. P. Korambath,  
 W. Kurlancheek,  A. Laurent,  A. M. Lee,  M. S. Lee,  S. V. Levchenko,  
 Ching Yeh Lin,  D. Liotard,  E. Livshits,  R. C. Lochan,  I. Lotan,  
 L. A. Martinez-Martinez,  P. E. Maslen,  N. Nair,  D. P. O'Neill,  
 D. Neuhauser,  E. Neuscamman,  C. M. Oana,  R. Olivares-Amaya,  R. Olson,  
 T. M. Perrine,  B. Peters,  P. A. Pieniazek,  A. Prociuk,  Y. M. Rhee,  
 J. Ritchie,  M. A. Rohrdanz,  E. Rosta,  N. J. Russ,  H. F. Schaefer III,  
 M. W. Schmidt,  N. E. Schultz,  S. Sharma,  N. Shenvi,  C. D. Sherrill,  
 A. C. Simmonett,  A. Sodt,  T. Stein,  D. Stuck,  K. S. Thanthiriwatte,  
 V. Vanovschi,  L. Vogt,  Tao Wang,  A. Warshel,  M. A. Watson,  
 C. F. Williams,  Q. Wu,  X. Xu,  Jun Yang,  W. Zhang,  Yan Zhao

 Please cite Q-Chem as follows:
 Y. Shao et al., Mol. Phys. 113, 184-215 (2015)
 DOI: 10.1080/00268976.2014.952696

 Q-Chem 5.4.0 for Intel X86 EM64T Linux

 Parts of Q-Chem use Armadillo 9.800.1 (Horizon Scraper).
 http://arma.sourceforge.net/

 Q-Chem begins on Mon Aug  2 11:31:22 2021  

 Host: 
0

     Scratch files written to /home/pierre-alex/qchem_scratch//home/pierre-alex/qchem_scratch///
 May1621 |scratch|qcdevops|jenkins|workspace|build_RNUM 8092   
 Processing $rem in /home/pierre-alex/qchem/config/preferences:
 Processing $rem in /home/pierre-alex/.qchemrc:

 Checking the input file for inconsistencies... 	...done.

--------------------------------------------------------------
User input:
--------------------------------------------------------------
$molecule
0 1
C    2.6135283    0.5720793    0.5364681
C    3.8720718    0.7949487   -0.0338961
C    4.0302915    0.7393905   -1.4219517
C    2.9302738    0.4609106   -2.2414580
C    1.6724085    0.2381334   -1.6718394
C    1.5137481    0.2936769   -0.2825875
H    2.4945755    0.6158698    1.6118623
H    4.7236916    1.0103887    0.5981033
H    5.0030927    0.9116986   -1.8621979
H    3.0535648    0.4181293   -3.3150222
H    0.8222092    0.0228451   -2.3060550
H    0.5385756    0.1207528    0.1556462
$end

$rem
BASIS  =  6-31G*
GUI  =  2
JOB_TYPE  =  Frequency
METHOD  =  B3LYP
SCF_CONVERGENCE  =  8
$end

--------------------------------------------------------------
 Atom   1: ( -0.4854588794, -1.3122820330, -0.0000000057)
         ->( -0.4854588794, -1.3122820330,  0.0000000000)
 Atom   2: ( -1.3792479105, -0.2352216821,  0.0000000340)
         ->( -1.3792479105, -0.2352216821,  0.0000000000)
 Atom   3: ( -0.8938954875,  1.0759806520, -0.0000000174)
         ->( -0.8938954875,  1.0759806520,  0.0000000000)
 Atom   4: (  0.4857897016,  1.3118817962, -0.0000000269)
         ->(  0.4857897016,  1.3118817962,  0.0000000000)
 Atom   5: (  1.3792960996,  0.2357932962,  0.0000000063)
         ->(  1.3792960996,  0.2357932962,  0.0000000000)
 Atom   6: (  0.8938041211, -1.0766763543, -0.0000000085)
         ->(  0.8938041211, -1.0766763543,  0.0000000000)
 Atom   7: ( -0.8648078512, -2.3264981931, -0.0000000297)
         ->( -0.8648078512, -2.3264981931,  0.0000000000)
 Atom   8: ( -2.4462693688, -0.4156631589, -0.0000000198)
         ->( -2.4462693688, -0.4156631589,  0.0000000000)
 Atom   9: ( -1.5850389499,  1.9079480114,  0.0000000364)
         ->( -1.5850389499,  1.9079480114,  0.0000000000)
 Atom  10: (  0.8603341190,  2.3264198592,  0.0000000423)
         ->(  0.8603341190,  2.3264198592,  0.0000000000)
 Atom  11: (  2.4460227518,  0.4188549761,  0.0000000735)
         ->(  2.4460227518,  0.4188549761,  0.0000000000)
 Atom  12: (  1.5880334296, -1.9079155450,  0.0000000069)
         ->(  1.5880334296, -1.9079155450,  0.0000000000)
 ----------------------------------------------------------------
             Standard Nuclear Orientation (Angstroms)
    I     Atom           X                Y                Z
 ----------------------------------------------------------------
    1      C      -0.4854588794    -1.3122820330     0.0000000000
    2      C      -1.3792479105    -0.2352216821     0.0000000000
    3      C      -0.8938954875     1.0759806520     0.0000000000
    4      C       0.4857897016     1.3118817962     0.0000000000
    5      C       1.3792960996     0.2357932962     0.0000000000
    6      C       0.8938041211    -1.0766763543     0.0000000000
    7      H      -0.8648078512    -2.3264981931     0.0000000000
    8      H      -2.4462693688    -0.4156631589     0.0000000000
    9      H      -1.5850389499     1.9079480114     0.0000000000
   10      H       0.8603341190     2.3264198592     0.0000000000
   11      H       2.4460227518     0.4188549761     0.0000000000
   12      H       1.5880334296    -1.9079155450     0.0000000000
 ----------------------------------------------------------------
 Molecular Point Group                 Cs    NOp =  2
 Largest Abelian Subgroup              Cs    NOp =  2
 Nuclear Repulsion Energy =         203.01162239 hartrees
 There are       21 alpha and       21 beta electrons
 Requested basis set is 6-31G(d)
 There are 36 shells and 102 basis functions

 Total QAlloc Memory Limit   4000 MB
 Mega-Array Size       188 MB
 MEM_STATIC part       192 MB

                       Distance Matrix (Angstroms)
             C (  1)   C (  2)   C (  3)   C (  4)   C (  5)   C (  6)
   C (  2)  1.399613
   C (  3)  2.422936  1.398148
   C (  4)  2.798135  2.423199  1.399707
   C (  5)  2.423602  2.798467  2.423492  1.398685
   C (  6)  1.399241  2.423801  2.798178  2.423156  1.399385
   H (  7)  1.082839  2.153622  3.402603  3.880969  3.406074  2.157492
   H (  8)  2.156085  1.082171  2.152874  3.403143  3.880637  3.404854
   H (  9)  3.402787  2.153027  1.081596  2.154907  3.403437  3.879774
   H ( 10)  3.879602  3.402607  2.154279  1.081467  2.154075  3.403261
   H ( 11)  3.404471  3.880788  3.403949  2.154068  1.082320  2.155457
   H ( 12)  2.157348  3.406268  3.881186  3.403239  2.153847  1.083011
             H (  7)   H (  8)   H (  9)   H ( 10)   H ( 11)
   H (  8)  2.480385
   H (  9)  4.295261  2.478081
   H ( 10)  4.962435  4.295654  2.480921
   H ( 11)  4.300996  4.962957  4.297308  2.480567
   H ( 12)  2.488301  4.301444  4.962782  4.296410  2.479921
 
 A cutoff of  1.0D-11 yielded    648 shell pairs
 There are      5397 function pairs
 Smallest overlap matrix eigenvalue = 5.29E-04
 Guess from superposition of atomic densities
 Warning:  Energy on first SCF cycle will be non-variational
 SAD guess density has 42.000000 electrons

 -----------------------------------------------------------------------
  General SCF calculation program by
  Eric Jon Sundstrom, Paul Horn, Yuezhi Mao, Dmitri Zuev, Alec White,
  David Stuck, Shaama M.S., Shane Yost, Joonho Lee, David Small,
  Daniel Levine, Susi Lehtola, Hugh Burton, Evgeny Epifanovsky,
  Bang C. Huynh
 -----------------------------------------------------------------------
 Exchange:     0.2000 Hartree-Fock + 0.0800 Slater + 0.7200 B88
 Correlation:  0.1900 VWN1RPA + 0.8100 LYP
 Using SG-1 standard quadrature grid
 A restricted SCF calculation will be
 performed using DIIS
 SCF converges when DIIS error is below 1.0e-08
 ---------------------------------------
  Cycle       Energy         DIIS error
 ---------------------------------------
    1    -233.4996021218      7.87e-02  
    2    -232.1563200575      7.82e-03  
    3    -232.1585667873      7.99e-03  
    4    -232.2482794382      4.77e-04  
    5    -232.2485333598      6.73e-05  
    6    -232.2485383297      2.32e-05  
    7    -232.2485390948      6.37e-06  
    8    -232.2485391576      2.93e-07  
    9    -232.2485391577      2.65e-07  
   10    -232.2485391578      5.97e-09  Convergence criterion met
 ---------------------------------------
 SCF time:   CPU 7.24s  wall 7.00s 
 SCF   energy in the final basis set =     -232.2485391578
 Total energy in the final basis set =     -232.2485391578
 
 --------------------------------------------------------------
             Orbital Energies (a.u.) and Symmetries
 --------------------------------------------------------------
 
 Alpha MOs, Restricted
 -- Occupied --                  
-10.188 -10.187 -10.187 -10.187 -10.187 -10.187  -0.845  -0.740
  1 A'    2 A'    3 A'    4 A'    5 A'    6 A'    7 A'    8 A'                 
 -0.739  -0.598  -0.598  -0.519  -0.461  -0.437  -0.418  -0.418
  9 A'   10 A'   11 A'   12 A'   13 A'   14 A'   15 A'   16 A'                 
 -0.358  -0.341  -0.341  -0.246  -0.246
  1 A"   17 A'   18 A'    2 A"    3 A"                                         
 -- Virtual --                   
  0.003   0.003   0.093   0.146   0.146   0.163   0.182   0.182
  4 A"    5 A"   19 A'   20 A'   21 A'    6 A"   22 A'   23 A'                 
  0.191   0.302   0.302   0.318   0.318   0.476   0.528   0.547
 24 A'   25 A'   26 A'   27 A'   28 A'   29 A'    7 A"   30 A'                 
  0.550   0.562   0.592   0.601   0.601   0.602   0.603   0.627
 31 A'   32 A'   33 A'   34 A'   35 A'    8 A"    9 A"   36 A'                 
  0.627   0.667   0.668   0.745   0.842   0.844   0.844   0.869
 37 A'   10 A"   11 A"   12 A"   38 A'   39 A'   40 A'   41 A'                 
  0.869   0.938   0.938   0.944   0.956   1.081   1.081   1.140
 42 A'   43 A'   44 A'   45 A'   46 A'   47 A'   48 A'   49 A'                 
  1.141   1.200   1.262   1.397   1.438   1.438   1.486   1.486
 50 A'   51 A'   13 A"   14 A"   52 A'   53 A'   15 A"   16 A"                 
  1.515   1.515   1.758   1.788   1.862   1.896   1.978   1.978
 17 A"   18 A"   54 A'   55 A'   56 A'   57 A'   58 A'   59 A'                 
  2.062   2.063   2.149   2.150   2.151   2.151   2.307   2.307
 60 A'   61 A'   19 A"   20 A"   62 A'   63 A'   21 A"   22 A"                 
  2.318   2.546   2.546   2.652   2.703   2.703   2.719   2.719
 23 A"   64 A'   65 A'   24 A"   66 A'   67 A'   68 A'   69 A'                 
  2.761   3.014   3.406   4.084   4.118   4.118   4.331   4.331
 70 A'   71 A'   72 A'   73 A'   74 A'   75 A'   76 A'   77 A'                 
  4.665
 78 A'                                                                         
 
 Beta MOs, Restricted
 -- Occupied --                  
-10.188 -10.187 -10.187 -10.187 -10.187 -10.187  -0.845  -0.740
  1 A'    2 A'    3 A'    4 A'    5 A'    6 A'    7 A'    8 A'                 
 -0.739  -0.598  -0.598  -0.519  -0.461  -0.437  -0.418  -0.418
  9 A'   10 A'   11 A'   12 A'   13 A'   14 A'   15 A'   16 A'                 
 -0.358  -0.341  -0.341  -0.246  -0.246
  1 A"   17 A'   18 A'    2 A"    3 A"                                         
 -- Virtual --                   
  0.003   0.003   0.093   0.146   0.146   0.163   0.182   0.182
  4 A"    5 A"   19 A'   20 A'   21 A'    6 A"   22 A'   23 A'                 
  0.191   0.302   0.302   0.318   0.318   0.476   0.528   0.547
 24 A'   25 A'   26 A'   27 A'   28 A'   29 A'    7 A"   30 A'                 
  0.550   0.562   0.592   0.601   0.601   0.602   0.603   0.627
 31 A'   32 A'   33 A'   34 A'   35 A'    8 A"    9 A"   36 A'                 
  0.627   0.667   0.668   0.745   0.842   0.844   0.844   0.869
 37 A'   10 A"   11 A"   12 A"   38 A'   39 A'   40 A'   41 A'                 
  0.869   0.938   0.938   0.944   0.956   1.081   1.081   1.140
 42 A'   43 A'   44 A'   45 A'   46 A'   47 A'   48 A'   49 A'                 
  1.141   1.200   1.262   1.397   1.438   1.438   1.486   1.486
 50 A'   51 A'   13 A"   14 A"   52 A'   53 A'   15 A"   16 A"                 
  1.515   1.515   1.758   1.788   1.862   1.896   1.978   1.978
 17 A"   18 A"   54 A'   55 A'   56 A'   57 A'   58 A'   59 A'                 
  2.062   2.063   2.149   2.150   2.151   2.151   2.307   2.307
 60 A'   61 A'   19 A"   20 A"   62 A'   63 A'   21 A"   22 A"                 
  2.318   2.546   2.546   2.652   2.703   2.703   2.719   2.719
 23 A"   64 A'   65 A'   24 A"   66 A'   67 A'   68 A'   69 A'                 
  2.761   3.014   3.406   4.084   4.118   4.118   4.331   4.331
 70 A'   71 A'   72 A'   73 A'   74 A'   75 A'   76 A'   77 A'                 
  4.665
 78 A'                                                                         
 --------------------------------------------------------------
 
          Ground-State Mulliken Net Atomic Charges

     Atom                 Charge (a.u.)
  ----------------------------------------
      1 C                    -0.129178
      2 C                    -0.128425
      3 C                    -0.128374
      4 C                    -0.128861
      5 C                    -0.128554
      6 C                    -0.128749
      7 H                     0.128738
      8 H                     0.128691
      9 H                     0.128601
     10 H                     0.128656
     11 H                     0.128722
     12 H                     0.128733
  ----------------------------------------
  Sum of atomic charges =     0.000000

 -----------------------------------------------------------------
                    Cartesian Multipole Moments
 -----------------------------------------------------------------
    Charge (ESU x 10^10)
                -0.0000
    Dipole Moment (Debye)
         X      -0.0010      Y       0.0030      Z      -0.0000
       Tot       0.0032
    Quadrupole Moments (Debye-Ang)
        XX     -31.3541     XY       0.0019     YY     -31.3820
        XZ       0.0000     YZ       0.0000     ZZ     -38.6030
    Octopole Moments (Debye-Ang^2)
       XXX       0.0001    XXY      -0.0074    XYY      -0.0106
       YYY       0.0407    XXZ       0.0000    XYZ      -0.0000
       YYZ      -0.0000    XZZ      -0.0029    YZZ       0.0086
       ZZZ      -0.0000
    Hexadecapole Moments (Debye-Ang^3)
      XXXX    -270.3200   XXXY      -0.0294   XXYY     -90.0647
      XYYY       0.0503   YYYY    -270.2782   XXXZ       0.0000
      XXYZ       0.0000   XYYZ       0.0000   YYYZ       0.0000
      XXZZ     -60.4142   XYZZ       0.0005   YYZZ     -60.3745
      XZZZ       0.0000   YZZZ      -0.0000   ZZZZ     -40.0761
 -----------------------------------------------------------------
 Calculating MO derivatives via CPSCF
    1     0    39    0.0526389  
    2     0    39    0.0079023  
    3     0    39    0.0008722  
    4    15    24    0.0000328  
    5    37     2    0.0000010  
    6    39     0    0.0000000  Converged
 Time for AOints: 2.2 s (CPU) 2.2 s (wall)
 ------------------------------------------------------------------------------
                     AOints        : Timing summary (seconds)
 ------------------------------------------------------------------------------
     job step          cpu (% of tot)      sys (% of tot)     wall (% of tot)
 ------------------------------------------------------------------------------
  AOints            0.2201E+01 ( 5.4)   0.0000E+00 ( 0.0)   0.2201E+01 ( 5.4)
 ------------------------------------------------------------------------------
   Grand Totals     0.4108E+02          0.3100E-04          0.4112E+02
 ------------------------------------------------------------------------------
 Polarizability Matrix (a.u.)
            1           2           3
    1 -71.1940279   0.0014818   0.0000000
    2   0.0014818 -71.1475668  -0.0000000
    3   0.0000000  -0.0000000 -20.9549193
 Calculating analytic Hessian of the SCF energy
 
 Direct stationary perturbation theory relativistic correction:
 
 rels  =       0.052218426454
 relv  =      -0.251835784854
 rel2e =       0.114698981019
 E_rel =      -0.084918377382
 
 **********************************************************************
 **                                                                  **
 **                       VIBRATIONAL ANALYSIS                       **
 **                       --------------------                       **
 **                                                                  **
 **        VIBRATIONAL FREQUENCIES (CM**-1) AND NORMAL MODES         **
 **     FORCE CONSTANTS (mDYN/ANGSTROM) AND REDUCED MASSES (AMU)     **
 **                  INFRARED INTENSITIES (KM/MOL)                   **
 **                                                                  **
 **********************************************************************
 

 Mode:                 1                      2                      3
 Frequency:       413.55                 415.97                 618.70
 Force Cnst:      0.2859                 0.2921                 1.3573
 Red. Mass:       2.8373                 2.8655                 6.0183
 IR Active:          YES                    YES                    YES
 IR Intens:        0.001                  0.000                  0.000
 Raman Active:       YES                    YES                    YES
               X      Y      Z        X      Y      Z        X      Y      Z
 C          0.000 -0.000 -0.066   -0.000 -0.000  0.228    0.065 -0.211 -0.000
 C          0.000  0.000  0.229    0.000 -0.000 -0.056    0.353  0.062  0.000
 C         -0.000  0.000 -0.163    0.000 -0.000 -0.172   -0.015  0.225 -0.000
 C         -0.000  0.000 -0.066    0.000  0.000  0.228   -0.065  0.211  0.000
 C         -0.000 -0.000  0.228   -0.000  0.000 -0.056   -0.353 -0.062 -0.000
 C          0.000 -0.000 -0.163   -0.000  0.000 -0.172    0.015 -0.225  0.000
 H         -0.000 -0.000 -0.147   -0.000 -0.000  0.501   -0.248 -0.093 -0.000
 H          0.000 -0.000  0.515    0.000  0.000 -0.126    0.353  0.056  0.000
 H         -0.000 -0.000 -0.362   -0.000 -0.000 -0.384   -0.272  0.011 -0.000
 H          0.000 -0.000 -0.146   -0.000  0.000  0.506    0.251  0.094  0.000
 H         -0.000 -0.000  0.515   -0.000 -0.000 -0.125   -0.352 -0.058 -0.000
 H          0.000 -0.000 -0.359    0.000  0.000 -0.379    0.269 -0.012  0.000
 TransDip  -0.000 -0.000  0.001   -0.000 -0.000 -0.001    0.000 -0.000 -0.000

 Mode:                 4                      5                      6
 Frequency:       618.95                 664.29                 719.02
 Force Cnst:      1.3571                 0.2821                 1.1454
 Red. Mass:       6.0125                 1.0849                 3.7602
 IR Active:          YES                    YES                    YES
 IR Intens:        0.000                 78.518                  0.000
 Raman Active:       YES                    YES                    YES
               X      Y      Z        X      Y      Z        X      Y      Z
 C         -0.179 -0.266 -0.000   -0.000 -0.000 -0.032   -0.000 -0.000  0.206
 C          0.031 -0.151  0.000    0.000 -0.000 -0.036    0.000 -0.000 -0.203
 C          0.257 -0.187 -0.000    0.000  0.000 -0.035    0.000  0.000  0.204
 C          0.178  0.266  0.000    0.000  0.000 -0.035    0.000  0.000 -0.205
 C         -0.030  0.151 -0.000   -0.000  0.000 -0.035   -0.000  0.000  0.203
 C         -0.257  0.186  0.000   -0.000 -0.000 -0.032   -0.000 -0.000 -0.205
 H         -0.005 -0.331 -0.000   -0.000 -0.000  0.398   -0.000 -0.000  0.346
 H         -0.034  0.231  0.000    0.000  0.000  0.410    0.000  0.000 -0.362
 H          0.105 -0.312 -0.000    0.000  0.000  0.414    0.000  0.000  0.352
 H          0.001  0.331 -0.000   -0.000  0.000  0.414    0.000  0.000 -0.348
 H          0.035 -0.230 -0.000   -0.000 -0.000  0.408   -0.000 -0.000  0.362
 H         -0.107  0.311  0.000    0.000  0.000  0.397    0.000  0.000 -0.350
 TransDip  -0.000 -0.000 -0.000   -0.000 -0.000  0.284    0.000  0.000  0.000

 Mode:                 7                      8                      9
 Frequency:       841.01                 844.05                 949.52
 Force Cnst:      0.5196                 0.5231                 0.7346
 Red. Mass:       1.2468                 1.2462                 1.3829
 IR Active:          YES                    YES                    YES
 IR Intens:        0.000                  0.026                  0.004
 Raman Active:       YES                    YES                    YES
               X      Y      Z        X      Y      Z        X      Y      Z
 C         -0.000 -0.000 -0.039    0.000  0.000 -0.073    0.000  0.000  0.063
 C          0.000  0.000 -0.087   -0.000  0.000 -0.002   -0.000 -0.000 -0.105
 C         -0.000  0.000 -0.042   -0.000  0.000  0.074    0.000 -0.000  0.043
 C         -0.000  0.000  0.043   -0.000 -0.000  0.073    0.000  0.000  0.061
 C         -0.000 -0.000  0.087    0.000  0.000 -0.003   -0.000 -0.000 -0.106
 C          0.000 -0.000  0.039    0.000  0.000 -0.074   -0.000 -0.000  0.045
 H         -0.000 -0.000  0.278    0.000  0.000  0.498    0.000  0.000 -0.342
 H          0.000 -0.000  0.575   -0.000 -0.000  0.010    0.000 -0.000  0.559
 H          0.000  0.000  0.284   -0.000 -0.000 -0.491   -0.000 -0.000 -0.230
 H          0.000 -0.000 -0.293    0.000 -0.000 -0.490    0.000 -0.000 -0.327
 H         -0.000  0.000 -0.574    0.000 -0.000  0.020   -0.000 -0.000  0.564
 H          0.000  0.000 -0.274    0.000  0.000  0.499   -0.000 -0.000 -0.244
 TransDip   0.000 -0.000 -0.000   -0.000 -0.000  0.005   -0.000  0.000 -0.002

 Mode:                10                     11                     12
 Frequency:       952.15                 992.84                1014.63
 Force Cnst:      0.7350                 0.7173                 3.6696
 Red. Mass:       1.3761                 1.2350                 6.0500
 IR Active:          YES                    YES                    YES
 IR Intens:        0.000                  0.000                  0.000
 Raman Active:       YES                    YES                    YES
               X      Y      Z        X      Y      Z        X      Y      Z
 C          0.000  0.000  0.083   -0.000 -0.000  0.063   -0.096 -0.261  0.000
 C         -0.000 -0.000  0.015   -0.000  0.000 -0.057   -0.272 -0.043 -0.000
 C          0.000 -0.000 -0.099    0.000  0.000  0.055   -0.177  0.210  0.000
 C          0.000  0.000  0.088   -0.000 -0.000 -0.055    0.097  0.258 -0.000
 C         -0.000  0.000  0.006   -0.000  0.000  0.058    0.273  0.049  0.000
 C          0.000 -0.000 -0.094    0.000  0.000 -0.063    0.177 -0.214 -0.000
 H         -0.000  0.000 -0.443   -0.000 -0.000 -0.429   -0.112 -0.281 -0.000
 H         -0.000 -0.000 -0.084   -0.000  0.000  0.394   -0.297 -0.040  0.000
 H          0.000  0.000  0.533    0.000  0.000 -0.384   -0.194  0.227 -0.000
 H          0.000 -0.000 -0.477    0.000 -0.000  0.383    0.103  0.281  0.000
 H         -0.000  0.000 -0.026   -0.000  0.000 -0.398    0.295  0.057  0.000
 H          0.000 -0.000  0.501    0.000  0.000  0.433    0.196 -0.230  0.000
 TransDip   0.000  0.000  0.000    0.000  0.000 -0.000   -0.000  0.000  0.000

 Mode:                13                     14                     15
 Frequency:      1020.22                1058.28                1061.46
 Force Cnst:      4.0087                 1.1130                 1.1232
 Red. Mass:       6.5369                 1.6867                 1.6920
 IR Active:          YES                    YES                    YES
 IR Intens:        0.001                  3.449                  3.379
 Raman Active:       YES                    YES                    YES
               X      Y      Z        X      Y      Z        X      Y      Z
 C         -0.101 -0.269  0.000   -0.049 -0.107 -0.000    0.072 -0.043 -0.000
 C          0.289  0.049  0.000   -0.058  0.066  0.000   -0.099 -0.050  0.000
 C         -0.186  0.220 -0.000    0.096 -0.010 -0.000   -0.026  0.106 -0.000
 C         -0.101 -0.269  0.000   -0.050 -0.108  0.000    0.073 -0.041  0.000
 C          0.289  0.050 -0.000   -0.059  0.065 -0.000   -0.098 -0.050 -0.000
 C         -0.186  0.220  0.000    0.094 -0.009  0.000   -0.025  0.106  0.000
 H         -0.116 -0.261 -0.000   -0.096 -0.098  0.000    0.497 -0.203  0.000
 H          0.288  0.044  0.000   -0.132  0.484 -0.000   -0.075 -0.238 -0.000
 H         -0.194  0.210  0.000    0.388  0.226  0.000    0.181  0.286 -0.000
 H         -0.111 -0.263 -0.000   -0.099 -0.099 -0.000    0.503 -0.201  0.000
 H          0.287  0.050  0.000   -0.134  0.482  0.000   -0.073 -0.241 -0.000
 H         -0.196  0.209  0.000    0.382  0.225 -0.000    0.182  0.286 -0.000
 TransDip  -0.001 -0.000  0.000    0.014  0.058 -0.000    0.057 -0.015 -0.000

 Mode:                16                     17                     18
 Frequency:      1173.62                1197.33                1197.74
 Force Cnst:      0.8700                 0.9593                 0.9628
 Red. Mass:       1.0720                 1.1357                 1.1391
 IR Active:          YES                    YES                    YES
 IR Intens:        0.000                  0.000                  0.001
 Raman Active:       YES                    YES                    YES
               X      Y      Z        X      Y      Z        X      Y      Z
 C          0.029 -0.010 -0.000    0.029 -0.007 -0.000    0.054 -0.022  0.000
 C         -0.006  0.030  0.000   -0.010  0.061 -0.000    0.003  0.004 -0.000
 C         -0.025 -0.021 -0.000   -0.028 -0.019 -0.000    0.037  0.035  0.000
 C          0.031 -0.012 -0.000   -0.029  0.006 -0.000   -0.050  0.021 -0.000
 C         -0.006  0.030  0.000    0.011 -0.061  0.000   -0.003 -0.002  0.000
 C         -0.024 -0.018  0.000    0.028  0.020 -0.000   -0.041 -0.036 -0.000
 H          0.369 -0.137 -0.000    0.244 -0.087 -0.000    0.485 -0.183 -0.000
 H         -0.068  0.402  0.000   -0.096  0.568  0.000   -0.003  0.038  0.000
 H         -0.322 -0.267  0.000   -0.240 -0.194  0.000    0.364  0.306 -0.000
 H          0.394 -0.146  0.000   -0.248  0.087 -0.000   -0.464  0.174 -0.000
 H         -0.069  0.403 -0.000    0.097 -0.568 -0.000    0.000 -0.021  0.000
 H         -0.303 -0.251  0.000    0.237  0.193  0.000   -0.380 -0.319  0.000
 TransDip   0.000 -0.000  0.000   -0.000 -0.000  0.000    0.000 -0.001 -0.000

 Mode:                19                     20                     21
 Frequency:      1340.40                1375.92                1520.15
 Force Cnst:      7.4113                 1.3903                 2.7734
 Red. Mass:       7.0012                 1.2465                 2.0370
 IR Active:          YES                    YES                    YES
 IR Intens:        0.001                  0.000                  6.586
 Raman Active:       YES                    YES                    YES
               X      Y      Z        X      Y      Z        X      Y      Z
 C          0.282 -0.103  0.000   -0.055  0.020  0.000    0.022  0.092  0.000
 C         -0.049  0.298  0.000   -0.011  0.060 -0.000    0.073 -0.115 -0.000
 C         -0.231 -0.195 -0.000    0.047  0.039  0.000   -0.130 -0.052  0.000
 C          0.282 -0.106  0.000    0.056 -0.021 -0.000    0.025  0.091 -0.000
 C         -0.052  0.298  0.000    0.010 -0.060  0.000    0.072 -0.114  0.000
 C         -0.232 -0.193 -0.000   -0.047 -0.038 -0.000   -0.129 -0.053 -0.000
 H         -0.268  0.103 -0.000    0.382 -0.144  0.000    0.073  0.095  0.000
 H          0.046 -0.261  0.000    0.065 -0.394 -0.000   -0.012  0.452  0.000
 H          0.208  0.168 -0.000   -0.311 -0.258  0.000    0.337  0.346 -0.000
 H         -0.257  0.093  0.000   -0.384  0.142 -0.000    0.067  0.097 -0.000
 H          0.045 -0.265 -0.000   -0.067  0.394  0.000   -0.013  0.450  0.000
 H          0.221  0.184 -0.000    0.309  0.258 -0.000    0.340  0.349  0.000
 TransDip  -0.000  0.001 -0.000   -0.001 -0.000 -0.000    0.033  0.075 -0.000

 Mode:                22                     23                     24
 Frequency:      1522.81                1643.95                1645.40
 Force Cnst:      2.7744                 8.4955                 8.6324
 Red. Mass:       2.0306                 5.3354                 5.4118
 IR Active:          YES                    YES                    YES
 IR Intens:        6.472                  0.000                  0.000
 Raman Active:       YES                    YES                    YES
               X      Y      Z        X      Y      Z        X      Y      Z
 C         -0.141  0.047  0.000    0.314 -0.080  0.000    0.015 -0.163 -0.000
 C          0.063  0.093 -0.000   -0.158  0.070 -0.000   -0.007  0.322  0.000
 C          0.004 -0.106  0.000    0.241  0.058  0.000   -0.123 -0.238 -0.000
 C         -0.142  0.045 -0.000   -0.313  0.082 -0.000   -0.019  0.165  0.000
 C          0.064  0.096  0.000    0.159 -0.074  0.000    0.010 -0.319 -0.000
 C          0.002 -0.109 -0.000   -0.243 -0.057 -0.000    0.121  0.233  0.000
 H          0.505 -0.196  0.000   -0.374  0.182 -0.000   -0.136 -0.124 -0.000
 H          0.142 -0.272 -0.000   -0.138 -0.142 -0.000    0.117 -0.382 -0.000
 H          0.245  0.071 -0.000   -0.134 -0.268  0.000    0.312  0.107 -0.000
 H          0.500 -0.194  0.000    0.369 -0.174  0.000    0.147  0.121  0.000
 H          0.144 -0.276  0.000    0.137  0.149  0.000   -0.114  0.379  0.000
 H          0.252  0.077 -0.000    0.139  0.277  0.000   -0.305 -0.107  0.000
 TransDip   0.075 -0.033  0.000   -0.000  0.001  0.000    0.000 -0.000 -0.000

 Mode:                25                     26                     27
 Frequency:      3219.66                3229.77                3233.41
 Force Cnst:      6.6232                 6.6847                 6.7000
 Red. Mass:       1.0844                 1.0877                 1.0877
 IR Active:          YES                    YES                    YES
 IR Intens:        0.251                  1.848                  4.278
 Raman Active:       YES                    YES                    YES
               X      Y      Z        X      Y      Z        X      Y      Z
 C          0.014  0.040 -0.000    0.013  0.029  0.000    0.011  0.034  0.000
 C         -0.026 -0.005 -0.000   -0.053 -0.009 -0.000    0.016  0.001 -0.000
 C          0.010 -0.011 -0.000    0.017 -0.019  0.000   -0.026  0.032  0.000
 C          0.005  0.014  0.000   -0.003 -0.004 -0.000   -0.015 -0.039 -0.000
 C         -0.034 -0.005  0.000    0.039  0.006  0.000    0.037  0.008  0.000
 C          0.034 -0.042 -0.000   -0.022  0.024 -0.000    0.016 -0.023 -0.000
 H         -0.176 -0.473  0.000   -0.131 -0.344  0.000   -0.143 -0.388  0.000
 H          0.313  0.053  0.000    0.623  0.106  0.000   -0.181 -0.028 -0.000
 H         -0.115  0.138 -0.000   -0.199  0.237 -0.000    0.310 -0.374  0.000
 H         -0.063 -0.169  0.000    0.023  0.057  0.000    0.175  0.471  0.000
 H          0.400  0.067 -0.000   -0.457 -0.077  0.000   -0.436 -0.076  0.000
 H         -0.409  0.491 -0.000    0.244 -0.290 -0.000   -0.204  0.249 -0.000
 TransDip   0.006 -0.015  0.000   -0.014  0.041  0.000    0.063  0.020  0.000

 Mode:                28                     29                     30
 Frequency:      3245.28                3247.97                3259.85
 Force Cnst:      6.7925                 6.8010                 6.8725
 Red. Mass:       1.0946                 1.0942                 1.0977
 IR Active:          YES                    YES                    YES
 IR Intens:       40.899                 43.115                  8.553
 Raman Active:       YES                    YES                    YES
               X      Y      Z        X      Y      Z        X      Y      Z
 C          0.016  0.036  0.000   -0.012 -0.038 -0.000    0.006  0.017 -0.000
 C         -0.002 -0.003 -0.000   -0.053 -0.008  0.000    0.028  0.006  0.000
 C         -0.029  0.034 -0.000   -0.012  0.020 -0.000    0.032 -0.038 -0.000
 C          0.005  0.005  0.000   -0.014 -0.044  0.000   -0.021 -0.055  0.000
 C         -0.042 -0.009 -0.000   -0.026 -0.003 -0.000   -0.030 -0.004 -0.000
 C         -0.031  0.038  0.000    0.007 -0.005  0.000   -0.010  0.013  0.000
 H         -0.158 -0.414  0.000    0.153  0.415 -0.000   -0.067 -0.182  0.000
 H          0.023  0.008 -0.000    0.593  0.099  0.000   -0.306 -0.054 -0.000
 H          0.327 -0.394 -0.000    0.165 -0.206 -0.000   -0.350  0.420 -0.000
 H         -0.030 -0.071  0.000    0.180  0.493  0.000    0.227  0.611  0.000
 H          0.473  0.084 -0.000    0.282  0.046 -0.000    0.318  0.052 -0.000
 H          0.348 -0.418  0.000   -0.061  0.068  0.000    0.111 -0.134  0.000
 TransDip  -0.129  0.159  0.000   -0.172 -0.121 -0.000    0.009 -0.093  0.000

 STANDARD THERMODYNAMIC QUANTITIES AT   298.15 K  AND     1.00 ATM

   This Molecule has  0 Imaginary Frequencies
   Zero point vibrational energy:       63.241 kcal/mol

   Atom    1 Element C  Has Mass   12.00000
   Atom    2 Element C  Has Mass   12.00000
   Atom    3 Element C  Has Mass   12.00000
   Atom    4 Element C  Has Mass   12.00000
   Atom    5 Element C  Has Mass   12.00000
   Atom    6 Element C  Has Mass   12.00000
   Atom    7 Element H  Has Mass    1.00783
   Atom    8 Element H  Has Mass    1.00783
   Atom    9 Element H  Has Mass    1.00783
   Atom   10 Element H  Has Mass    1.00783
   Atom   11 Element H  Has Mass    1.00783
   Atom   12 Element H  Has Mass    1.00783
   Molecular Mass:    78.046980 amu
   Principal axes and moments of inertia in amu*Bohr^2:
                             1           2           3
    Eigenvalues --      318.00358   318.27780   636.28138
          X               0.99994     0.01059     0.00000
          Y              -0.01059     0.99994     0.00000
          Z               0.00000     0.00000     1.00000
   Rotational Symmetry Number is   1
   The Molecule is an Asymmetric Top
   Translational Enthalpy:        0.889 kcal/mol
   Rotational Enthalpy:           0.889 kcal/mol
   Vibrational Enthalpy:         64.243 kcal/mol
   gas constant (RT):             0.592 kcal/mol
   Translational Entropy:        38.979  cal/mol.K
   Rotational Entropy:           25.668  cal/mol.K
   Vibrational Entropy:           4.495  cal/mol.K

   Total Enthalpy:               66.613 kcal/mol
   Total Entropy:                69.143  cal/mol.K
 Total job time:  77.93s(wall), 77.75s(cpu) 
 Mon Aug  2 11:32:40 2021

        *************************************************************
        *                                                           *
        *  Thank you very much for using Q-Chem.  Have a nice day.  *
        *                                                           *
        *************************************************************


