
Running Job 1 of 1 toluene.inp
qchem toluene.inp_21489.0 /home/pierre-alex/qchem_scratch//home/pierre-alex/qchem_scratch// 0
/home/pierre-alex/qchem/exe/qcprog.exe_s toluene.inp_21489.0 /home/pierre-alex/qchem_scratch//home/pierre-alex/qchem_scratch//
                  Welcome to Q-Chem
     A Quantum Leap Into The Future Of Chemistry


 Q-Chem 5.4, Q-Chem, Inc., Pleasanton, CA (2021)

 E. Epifanovsky,  A. T. B. Gilbert,  Xintian Feng,  Joonho Lee,  Yuezhi Mao,  
 N. Mardirossian,  P. Pokhilko,  A. White,  M. Wormit,  M. P. Coons,  
 A. L. Dempwolff,  Zhengting Gan,  D. Hait,  P. R. Horn,  L. D. Jacobson,  
 I. Kaliman,  J. Kussmann,  A. W. Lange,  Ka Un Lao,  D. S. Levine,  Jie Liu,  
 S. C. McKenzie,  A. F. Morrison,  K. Nanda,  F. Plasser,  D. R. Rehn,  
 M. L. Vidal,  Zhi-Qiang You,  Ying Zhu,  B. Alam,  B. Albrecht,  
 A. Aldossary,  E. Alguire,  J. H. Andersen,  D. Barton,  K. Begam,  A. Behn,  
 Y. A. Bernard,  E. J. Berquist,  H. Burton,  A. Carreras,  K. Carter-Fenk,  
 R. Chakraborty,  A. D. Chien,  K. D. Closser,  V. Cofer-Shabica,  
 S. Dasgupta,  Jia Deng,  M. de Wergifosse,  M. Diedenhofen,  Hainam Do,  
 S. Ehlert,  Po-Tung Fang,  S. Fatehi,  Qingguo Feng,  J. Gayvert,  
 Qinghui Ge,  G. Gidofalvi,  M. Goldey,  J. Gomes,  C. Gonzalez-Espinoza,  
 S. Gulania,  A. Gunina,  M. W. D. Hanson-Heine,  P. H. P. Harbach,  
 A. W. Hauser,  M. F. Herbst,  M. Hernandez Vera,  M. Hodecker,  
 Z. C. Holden,  S. Houck,  Xunkun Huang,  Kerwin Hui,  B. C. Huynh,  
 M. Ivanov,  Hyunjun Ji,  Hanjie Jiang,  B. Kaduk,  S. Kaehler,  
 K. Khistyaev,  Jaehoon Kim,  P. Klunzinger,  Z. Koczor-Benda,  
 Joong Hoon Koh,  D. Kosenkov,  L. Koulias,  T. Kowalczyk,  C. M. Krauter,  
 K. Kue,  A. Kunitsa,  T. Kus,  A. Landau,  K. V. Lawler,  D. Lefrancois,  
 S. Lehtola,  Rain Li,  Yi-Pei Li,  Jiashu Liang,  M. Liebenthal,  
 Hung-Hsuan Lin,  You-Sheng Lin,  Fenglai Liu,  Kuan-Yu Liu,  
 M. Loipersberger,  A. Luenser,  A. Manjanath,  P. Manohar,  E. Mansoor,  
 S. F. Manzer,  Shan-Ping Mao,  A. V. Marenich,  T. Markovich,  S. Mason,  
 S. A. Maurer,  P. F. McLaughlin,  M. F. S. J. Menger,  J.-M. Mewes,  
 S. A. Mewes,  P. Morgante,  J. W. Mullinax,  T. S. Nguyen-Beck,  
 K. J. Oosterbaan,  G. Paran,  Alexander C. Paul,  Suranjan K. Paul,  
 F. Pavosevic,  Zheng Pei,  S. Prager,  E. I. Proynov,  E. Ramos,  B. Rana,  
 A. E. Rask,  A. Rettig,  R. M. Richard,  F. Rob,  E. Rossomme,  T. Scheele,  
 M. Scheurer,  M. Schneider,  N. Sergueev,  S. M. Sharada,  W. Skomorowski,  
 D. W. Small,  C. J. Stein,  Yu-Chuan Su,  E. J. Sundstrom,  Zhen Tao,  
 J. Thirman,  T. Tsuchimochi,  N. M. Tubman,  S. P. Veccham,  O. Vydrov,  
 J. Wenzel,  J. Witte,  A. Yamada,  Kun Yao,  S. Yeganeh,  S. R. Yost,  
 A. Zech,  Igor Ying Zhang,  Xing Zhang,  Yu Zhang,  D. Zuev,  
 A. Aspuru-Guzik,  A. T. Bell,  N. A. Besley,  K. B. Bravaya,  B. R. Brooks,  
 D. Casanova,  Jeng-Da Chai,  S. Coriani,  C. J. Cramer,  
 A. E. DePrince, III,  R. A. DiStasio Jr.,  A. Dreuw,  B. D. Dunietz,  
 T. R. Furlani,  W. A. Goddard III,  S. Grimme,  S. Hammes-Schiffer,  
 T. Head-Gordon,  W. J. Hehre,  Chao-Ping Hsu,  T.-C. Jagau,  Yousung Jung,  
 A. Klamt,  Jing Kong,  D. S. Lambrecht,  WanZhen Liang,  N. J. Mayhall,  
 C. W. McCurdy,  J. B. Neaton,  C. Ochsenfeld,  J. A. Parkhill,  R. Peverati,  
 V. A. Rassolov,  Yihan Shao,  L. V. Slipchenko,  T. Stauch,  R. P. Steele,  
 J. E. Subotnik,  A. J. W. Thom,  A. Tkatchenko,  D. G. Truhlar,  
 T. Van Voorhis,  T. A. Wesolowski,  K. B. Whaley,  H. L. Woodcock III,  
 P. M. Zimmerman,  S. Faraji,  P. M. W. Gill,  M. Head-Gordon,  
 J. M. Herbert,  A. I. Krylov

 Contributors to earlier versions of Q-Chem not listed above: 
 R. D. Adamson,  B. Austin,  R. Baer,  J. Baker,  G. J. O. Beran,  
 K. Brandhorst,  S. T. Brown,  E. F. C. Byrd,  A. K. Chakraborty,  
 G. K. L. Chan,  Chun-Min Chang,  Yunqing Chen,  C.-L. Cheng,  
 Siu Hung Chien,  D. M. Chipman,  D. L. Crittenden,  H. Dachsel,  
 R. J. Doerksen,  A. D. Dutoi,  R. G. Edgar,  J. Fosso-Tande,  
 L. Fusti-Molnar,  D. Ghosh,  A. Ghysels,  A. Golubeva-Zadorozhnaya,  
 J. Gonthier,  M. S. Gordon,  S. R. Gwaltney,  G. Hawkins,  J. E. Herr,  
 A. Heyden,  S. Hirata,  E. G. Hohenstein,  G. Kedziora,  F. J. Keil,  
 C. Kelley,  Jihan Kim,  R. A. King,  R. Z. Khaliullin,  P. P. Korambath,  
 W. Kurlancheek,  A. Laurent,  A. M. Lee,  M. S. Lee,  S. V. Levchenko,  
 Ching Yeh Lin,  D. Liotard,  E. Livshits,  R. C. Lochan,  I. Lotan,  
 L. A. Martinez-Martinez,  P. E. Maslen,  N. Nair,  D. P. O'Neill,  
 D. Neuhauser,  E. Neuscamman,  C. M. Oana,  R. Olivares-Amaya,  R. Olson,  
 T. M. Perrine,  B. Peters,  P. A. Pieniazek,  A. Prociuk,  Y. M. Rhee,  
 J. Ritchie,  M. A. Rohrdanz,  E. Rosta,  N. J. Russ,  H. F. Schaefer III,  
 M. W. Schmidt,  N. E. Schultz,  S. Sharma,  N. Shenvi,  C. D. Sherrill,  
 A. C. Simmonett,  A. Sodt,  T. Stein,  D. Stuck,  K. S. Thanthiriwatte,  
 V. Vanovschi,  L. Vogt,  Tao Wang,  A. Warshel,  M. A. Watson,  
 C. F. Williams,  Q. Wu,  X. Xu,  Jun Yang,  W. Zhang,  Yan Zhao

 Please cite Q-Chem as follows:
 Y. Shao et al., Mol. Phys. 113, 184-215 (2015)
 DOI: 10.1080/00268976.2014.952696

 Q-Chem 5.4.0 for Intel X86 EM64T Linux

 Parts of Q-Chem use Armadillo 9.800.1 (Horizon Scraper).
 http://arma.sourceforge.net/

 Q-Chem begins on Mon Aug  2 11:35:53 2021  

 Host: 
0

     Scratch files written to /home/pierre-alex/qchem_scratch//home/pierre-alex/qchem_scratch///
 May1621 |scratch|qcdevops|jenkins|workspace|build_RNUM 8092   
 Processing $rem in /home/pierre-alex/qchem/config/preferences:
 Processing $rem in /home/pierre-alex/.qchemrc:

 Checking the input file for inconsistencies... 	...done.

--------------------------------------------------------------
User input:
--------------------------------------------------------------
$molecule
0 1
C   -0.4580314   -1.3984060    0.0184778
C   -1.4588774   -0.4220115   -0.0184778
C   -1.1159174    0.9403756   -0.0433984
C    0.2381311    1.3107042   -0.0308602
C    1.2358444    0.3313272    0.0061141
C    0.8880785   -1.0221891    0.0307645
H   -0.7261000   -2.4468828    0.0375920
H   -2.4971880   -0.7294866   -0.0275727
H    0.5195090    2.3564970   -0.0497114
H    2.2784767    0.6217163    0.0156543
H    1.6612290   -1.7790846    0.0593713
C   -2.1768336    2.0000514   -0.0831191
H   -3.1958159    1.5577839   -0.0889236
H   -2.0559125    2.6149049   -0.9997621
H   -2.0836035    2.6549690    0.8086726
$end

$rem
BASIS  =  6-31G*
GUI  =  2
JOB_TYPE  =  Frequency
METHOD  =  B3LYP
SCF_CONVERGENCE  =  8
$end

--------------------------------------------------------------
 ----------------------------------------------------------------
             Standard Nuclear Orientation (Angstroms)
    I     Atom           X                Y                Z
 ----------------------------------------------------------------
    1      C       1.2042673805    -1.2064366260     0.0000000942
    2      C      -0.1944043077    -1.2174892331     0.0000002252
    3      C      -0.9102703606    -0.0084081761     0.0000002581
    4      C      -0.2091564408     1.2078101802    -0.0000004558
    5      C       1.1893902895     1.2145391488     0.0000000427
    6      C       1.8955946060     0.0083755607    -0.0000001054
    7      H       1.7522548067    -2.1398387408    -0.0000010534
    8      H      -0.7154813891    -2.1668001578    -0.0000000670
    9      H      -0.7457985036     2.1486750841     0.0000003792
   10      H       1.7255709820     2.1547567953     0.0000010174
   11      H       2.9779191356     0.0150430381     0.0000001732
   12      C      -2.4102703389    -0.0025958114    -0.0000000688
   13      H      -2.8226839070    -1.0340385923     0.0000086042
   14      H      -2.7813427129     0.5237086751    -0.9045496855
   15      H      -2.7813433795     0.5237236395     0.9045406902
 ----------------------------------------------------------------
 Molecular Point Group                 C1    NOp =  1
 Largest Abelian Subgroup              C1    NOp =  1
 Nuclear Repulsion Energy =         268.66021972 hartrees
 There are       25 alpha and       25 beta electrons
 Requested basis set is 6-31G(d)
 There are 44 shells and 121 basis functions

 Total QAlloc Memory Limit   4000 MB
 Mega-Array Size       188 MB
 MEM_STATIC part       192 MB

                       Distance Matrix (Angstroms)
             C (  1)   C (  2)   C (  3)   C (  4)   C (  5)   C (  6)
   C (  2)  1.398715
   C (  3)  2.430338  1.405113
   C (  4)  2.797562  2.425344  1.403833
   C (  5)  2.421021  2.798151  2.429851  1.398563
   C (  6)  1.397749  2.422982  2.805915  2.422524  1.397696
   H (  7)  1.082372  2.154115  3.410577  3.879934  3.401274  2.152991
   H (  8)  2.146563  1.082919  2.167164  3.412383  3.880978  3.398398
   H (  9)  3.880661  3.411026  2.163344  1.083149  2.148852  3.399682
   H ( 10)  3.401379  3.880509  3.409830  2.154038  1.082358  2.153105
   H ( 11)  2.153568  3.403347  3.888260  3.402961  2.153515  1.082345
   C ( 12)  3.809740  2.527059  1.500011  2.511968  3.799865  4.305879
   H ( 13)  4.030640  2.634674  2.170079  3.443314  4.599222  4.832057
   H ( 14)  4.438097  3.246880  2.145290  2.811111  4.130639  4.791401
   H ( 15)  4.438101  3.246886  2.145291  2.811106  4.130635  4.791401
             H (  7)   H (  8)   H (  9)   H ( 10)   H ( 11)   C ( 12)
   H (  8)  2.467883
   H (  9)  4.963025  4.315582
   H ( 10)  4.294678  4.963325  2.471377
   H ( 11)  2.479066  4.289714  4.291673  2.479264
   C ( 12)  4.679148  2.748834  2.720006  4.664692  5.388218
   H ( 13)  4.706682  2.392374  3.800410  5.554731  5.894707  1.110837
   H ( 14)  5.335372  3.510674  2.757203  4.877581  5.852012  1.110361
   H ( 15)  5.335379  3.510683  2.757191  4.877575  5.852013  1.110361
             H ( 13)   H ( 14)
   H ( 14)  1.801808
   H ( 15)  1.801808  1.809090
 
 A cutoff of  1.0D-11 yielded    926 shell pairs
 There are      7378 function pairs
 Smallest overlap matrix eigenvalue = 4.86E-04
 Guess from superposition of atomic densities
 Warning:  Energy on first SCF cycle will be non-variational
 SAD guess density has 50.000000 electrons

 -----------------------------------------------------------------------
  General SCF calculation program by
  Eric Jon Sundstrom, Paul Horn, Yuezhi Mao, Dmitri Zuev, Alec White,
  David Stuck, Shaama M.S., Shane Yost, Joonho Lee, David Small,
  Daniel Levine, Susi Lehtola, Hugh Burton, Evgeny Epifanovsky,
  Bang C. Huynh
 -----------------------------------------------------------------------
 Exchange:     0.2000 Hartree-Fock + 0.0800 Slater + 0.7200 B88
 Correlation:  0.1900 VWN1RPA + 0.8100 LYP
 Using SG-1 standard quadrature grid
 A restricted SCF calculation will be
 performed using DIIS
 SCF converges when DIIS error is below 1.0e-08
 ---------------------------------------
  Cycle       Energy         DIIS error
 ---------------------------------------
    1    -272.9808028824      7.17e-02  
    2    -271.4480228003      7.49e-03  
    3    -271.4512443786      7.54e-03  
    4    -271.5652751704      3.83e-04  
    5    -271.5654744645      1.69e-04  
    6    -271.5655104821      8.95e-05  
    7    -271.5655240191      1.43e-05  
    8    -271.5655243825      4.90e-06  
    9    -271.5655244313      1.43e-06  
   10    -271.5655244351      2.51e-07  
   11    -271.5655244348      3.80e-08  
   12    -271.5655244347      2.63e-08  
   13    -271.5655244347      4.88e-09  Convergence criterion met
 ---------------------------------------
 SCF time:   CPU 10.91s  wall 11.00s 
 SCF   energy in the final basis set =     -271.5655244347
 Total energy in the final basis set =     -271.5655244347
 
 --------------------------------------------------------------
 
                    Orbital Energies (a.u.)
 --------------------------------------------------------------
 
 Alpha MOs
 -- Occupied --
-10.1924 -10.1846 -10.1843 -10.1840 -10.1823 -10.1819 -10.1819  -0.8467
 -0.7649  -0.7372  -0.6766  -0.5988  -0.5759  -0.5040  -0.4524  -0.4505
 -0.4178  -0.4154  -0.3998  -0.3780  -0.3460  -0.3355  -0.3336  -0.2435
 -0.2337
 -- Virtual --
  0.0028   0.0083   0.0968   0.1197   0.1366   0.1458   0.1608   0.1720
  0.1902   0.1981   0.2007   0.2418   0.3100   0.3200   0.3238   0.3553
  0.4580   0.5164   0.5253   0.5459   0.5603   0.5621   0.5797   0.6004
  0.6064   0.6155   0.6222   0.6348   0.6502   0.6762   0.7095   0.7201
  0.7565   0.7689   0.8345   0.8461   0.8510   0.8737   0.8752   0.9027
  0.9305   0.9371   0.9538   0.9708   1.0074   1.0941   1.1197   1.1439
  1.1841   1.2022   1.2643   1.3720   1.3758   1.4462   1.4491   1.4689
  1.4873   1.5009   1.5183   1.7942   1.8020   1.8550   1.8947   1.9080
  1.9098   1.9298   1.9826   2.0569   2.0756   2.1276   2.1357   2.1655
  2.1804   2.2413   2.3115   2.3164   2.3276   2.3398   2.4133   2.5754
  2.5839   2.6585   2.7254   2.7347   2.7405   2.7784   2.8723   3.0545
  3.4105   4.0909   4.1203   4.1261   4.2329   4.3352   4.3972   4.6962
 --------------------------------------------------------------
 
          Ground-State Mulliken Net Atomic Charges

     Atom                 Charge (a.u.)
  ----------------------------------------
      1 C                    -0.127301
      2 C                    -0.178074
      3 C                     0.169461
      4 C                    -0.170894
      5 C                    -0.128991
      6 C                    -0.131461
      7 H                     0.126358
      8 H                     0.121955
      9 H                     0.121531
     10 H                     0.126713
     11 H                     0.125010
     12 C                    -0.524167
     13 H                     0.150648
     14 H                     0.159607
     15 H                     0.159606
  ----------------------------------------
  Sum of atomic charges =     0.000000

 -----------------------------------------------------------------
                    Cartesian Multipole Moments
 -----------------------------------------------------------------
    Charge (ESU x 10^10)
                 0.0000
    Dipole Moment (Debye)
         X      -0.2892      Y       0.0463      Z      -0.0000
       Tot       0.2929
    Quadrupole Moments (Debye-Ang)
        XX     -38.2128     XY      -0.0584     YY     -38.1144
        XZ       0.0000     YZ       0.0000     ZZ     -44.7903
    Octopole Moments (Debye-Ang^2)
       XXX       5.8546    XXY       0.0383    XYY       1.0912
       YYY      -0.4632    XXZ       0.0000    XYZ       0.0000
       YYZ       0.0000    XZZ      -3.2215    YZZ       0.6105
       ZZZ      -0.0000
    Hexadecapole Moments (Debye-Ang^3)
      XXXX    -605.8456   XXXY       0.4560   XXYY    -144.9189
      XYYY       1.4112   YYYY    -286.4389   XXXZ      -0.0000
      XXYZ       0.0000   XYYZ      -0.0000   YYYZ       0.0000
      XXZZ    -115.4601   XYZZ      -1.6993   YYZZ     -65.2123
      XZZZ       0.0000   YZZZ       0.0000   ZZZZ     -53.3501
 -----------------------------------------------------------------
 Calculating MO derivatives via CPSCF
    1     0    48    0.0490976  
    2     0    48    0.0070669  
    3     0    48    0.0007087  
    4    23    25    0.0000338  
    5    47     1    0.0000015  
    6    48     0    0.0000000  Converged
 Time for AOints: 3.3 s (CPU) 3.4 s (wall)
 ------------------------------------------------------------------------------
                     AOints        : Timing summary (seconds)
 ------------------------------------------------------------------------------
     job step          cpu (% of tot)      sys (% of tot)     wall (% of tot)
 ------------------------------------------------------------------------------
  AOints            0.3347E+01 ( 4.8)   0.0000E+00 ( 0.0)   0.3355E+01 ( 4.8)
 ------------------------------------------------------------------------------
   Grand Totals     0.6925E+02          0.4800E-04          0.6982E+02
 ------------------------------------------------------------------------------
 Polarizability Matrix (a.u.)
            1           2           3
    1 -90.4150593   0.4910397  -0.0000048
    2   0.4910397 -79.2230978  -0.0000034
    3  -0.0000048  -0.0000034 -31.1173196
 Calculating analytic Hessian of the SCF energy
 
 Direct stationary perturbation theory relativistic correction:
 
 rels  =       0.060909451996
 relv  =      -0.301975348724
 rel2e =       0.142019271148
 E_rel =      -0.099046625581
 
 **********************************************************************
 **                                                                  **
 **                       VIBRATIONAL ANALYSIS                       **
 **                       --------------------                       **
 **                                                                  **
 **        VIBRATIONAL FREQUENCIES (CM**-1) AND NORMAL MODES         **
 **     FORCE CONSTANTS (mDYN/ANGSTROM) AND REDUCED MASSES (AMU)     **
 **                  INFRARED INTENSITIES (KM/MOL)                   **
 **                                                                  **
 **********************************************************************
 

 Mode:                 1                      2                      3
 Frequency:       212.02                 351.91                 359.83
 Force Cnst:      0.0783                 0.1902                 0.0805
 Red. Mass:       2.9553                 2.6069                 1.0558
 IR Active:          YES                    YES                    YES
 IR Intens:        1.690                  0.256                  0.001
 Raman Active:       YES                    YES                    YES
               X      Y      Z        X      Y      Z        X      Y      Z
 C          0.000 -0.000  0.015    0.078  0.014  0.000    0.000  0.000 -0.032
 C          0.000 -0.000 -0.177    0.058 -0.136  0.000    0.000 -0.000 -0.045
 C          0.000 -0.000 -0.150    0.005 -0.158 -0.000    0.000 -0.000  0.004
 C         -0.000 -0.000 -0.196   -0.061 -0.134  0.000   -0.000 -0.000  0.004
 C         -0.000 -0.000  0.007   -0.084  0.017 -0.000   -0.000  0.000  0.016
 C          0.000  0.000  0.197   -0.005  0.067 -0.000   -0.000  0.000  0.026
 H          0.000  0.000  0.086    0.172  0.069  0.000    0.000  0.000 -0.040
 H          0.000 -0.000 -0.226    0.153 -0.189  0.000    0.000 -0.000 -0.059
 H         -0.000 -0.000 -0.263   -0.170 -0.196 -0.000   -0.000 -0.000  0.032
 H         -0.000  0.000  0.073   -0.175  0.068 -0.000   -0.000  0.000  0.049
 H         -0.000  0.000  0.452   -0.006  0.139 -0.000   -0.000  0.000  0.074
 C         -0.000  0.000  0.214    0.008  0.243 -0.000    0.000  0.000  0.019
 H          0.000 -0.000  0.190   -0.346  0.384 -0.000   -0.000  0.000  0.579
 H         -0.240  0.127  0.389    0.196  0.384  0.004   -0.009 -0.499 -0.273
 H          0.240 -0.127  0.389    0.196  0.383 -0.004    0.009  0.499 -0.273
 TransDip  -0.000  0.000  0.042   -0.005  0.015 -0.000   -0.000  0.000 -0.001

 Mode:                 4                      5                      6
 Frequency:       415.28                 484.75                 529.17
 Force Cnst:      0.2884                 0.3653                 0.8390
 Red. Mass:       2.8389                 2.6389                 5.0854
 IR Active:          YES                    YES                    YES
 IR Intens:        0.020                  6.766                  0.516
 Raman Active:       YES                    YES                    YES
               X      Y      Z        X      Y      Z        X      Y      Z
 C          0.000 -0.000 -0.204   -0.000 -0.000 -0.119   -0.109 -0.126  0.000
 C          0.000 -0.000  0.204   -0.000 -0.000 -0.034   -0.054 -0.128 -0.000
 C          0.000 -0.000  0.007    0.000  0.000  0.279    0.225  0.007 -0.000
 C          0.000 -0.000 -0.203   -0.000  0.000 -0.029   -0.052  0.143  0.000
 C         -0.000 -0.000  0.205   -0.000  0.000 -0.131   -0.107  0.124  0.000
 C         -0.000  0.000  0.000   -0.000 -0.000  0.191   -0.301 -0.006 -0.000
 H         -0.000  0.000 -0.470   -0.000  0.000 -0.402    0.050 -0.031  0.000
 H         -0.000 -0.000  0.444   -0.000  0.000 -0.323   -0.262 -0.010  0.000
 H         -0.000 -0.000 -0.468   -0.000  0.000 -0.333   -0.252  0.026  0.000
 H         -0.000 -0.000  0.442    0.000  0.000 -0.441    0.065  0.024  0.000
 H         -0.000  0.000 -0.012   -0.000 -0.000  0.294   -0.301 -0.008 -0.000
 C          0.000  0.000 -0.001    0.000 -0.000 -0.023    0.364 -0.011  0.000
 H          0.000  0.000 -0.008   -0.000 -0.000 -0.210    0.371 -0.011 -0.000
 H          0.019 -0.001 -0.009    0.251  0.054 -0.097    0.360 -0.012  0.001
 H         -0.019  0.001 -0.009   -0.251 -0.054 -0.097    0.360 -0.012 -0.001
 TransDip  -0.000  0.000 -0.005   -0.000  0.000 -0.083    0.023  0.003  0.000

 Mode:                 7                      8                      9
 Frequency:       636.13                 701.06                 734.99
 Force Cnst:      1.5053                 0.4371                 0.6703
 Red. Mass:       6.3139                 1.5095                 2.1061
 IR Active:          YES                    YES                    YES
 IR Intens:        0.104                 33.674                 17.508
 Raman Active:       YES                    YES                    YES
               X      Y      Z        X      Y      Z        X      Y      Z
 C          0.263 -0.238  0.000   -0.000  0.000 -0.135   -0.000  0.000  0.049
 C          0.238  0.197 -0.000   -0.000  0.000  0.054   -0.000  0.000 -0.130
 C         -0.002  0.134  0.000   -0.000 -0.000 -0.045   -0.000  0.000  0.191
 C         -0.240  0.194 -0.000   -0.000  0.000  0.047   -0.000 -0.000 -0.129
 C         -0.259 -0.243  0.000    0.000 -0.000 -0.132   -0.000 -0.000  0.050
 C          0.003 -0.138 -0.000    0.000  0.000  0.052    0.000  0.000 -0.156
 H          0.121 -0.322  0.000    0.000 -0.000  0.244   -0.000 -0.000  0.583
 H          0.093  0.276 -0.000    0.000 -0.000  0.480    0.000 -0.000  0.020
 H         -0.095  0.275  0.000    0.000 -0.000  0.472    0.000 -0.000  0.001
 H         -0.118 -0.323  0.000   -0.000 -0.000  0.249   -0.000 -0.000  0.552
 H          0.000  0.306  0.000   -0.000 -0.000  0.615    0.000 -0.000  0.358
 C         -0.003  0.059 -0.000    0.000 -0.000 -0.010    0.000 -0.000  0.021
 H         -0.027  0.070  0.000   -0.000 -0.000 -0.044   -0.000 -0.000 -0.121
 H          0.013  0.076  0.003   -0.001  0.018  0.002    0.226  0.011 -0.068
 H          0.013  0.076 -0.003    0.001 -0.018  0.002   -0.226 -0.011 -0.068
 TransDip   0.000  0.010  0.000    0.000 -0.000  0.186   -0.000 -0.000  0.134

 Mode:                10                     11                     12
 Frequency:       806.88                 832.25                 888.34
 Force Cnst:      1.7099                 0.5098                 0.6237
 Red. Mass:       4.4576                 1.2493                 1.3413
 IR Active:          YES                    YES                    YES
 IR Intens:        0.254                  0.000                  0.693
 Raman Active:       YES                    YES                    YES
               X      Y      Z        X      Y      Z        X      Y      Z
 C         -0.135  0.220  0.000   -0.000  0.000 -0.068   -0.000  0.000 -0.013
 C         -0.084  0.185  0.000   -0.000  0.000 -0.078    0.000  0.000  0.096
 C         -0.031 -0.003 -0.000   -0.000  0.000 -0.006    0.000  0.000 -0.037
 C         -0.077 -0.175 -0.000   -0.000 -0.000  0.081   -0.000 -0.000  0.095
 C         -0.132 -0.218 -0.000   -0.000 -0.000  0.068   -0.000 -0.000 -0.008
 C          0.160 -0.002  0.000    0.000 -0.000  0.001    0.000  0.000 -0.101
 H         -0.412  0.063 -0.000    0.000 -0.000  0.458   -0.000 -0.000  0.072
 H         -0.009  0.153 -0.000   -0.000  0.000  0.529   -0.000  0.000 -0.534
 H         -0.000 -0.139  0.000   -0.000  0.000 -0.518   -0.000 -0.000 -0.528
 H         -0.401 -0.070 -0.000   -0.000  0.000 -0.469   -0.000 -0.000  0.056
 H          0.155 -0.004 -0.000    0.000  0.000 -0.007   -0.000  0.000  0.600
 C          0.279 -0.009  0.000    0.000  0.000  0.002    0.000  0.000 -0.017
 H          0.281 -0.004  0.000    0.000 -0.000 -0.005    0.000  0.000  0.071
 H          0.317  0.016 -0.000    0.000 -0.006 -0.003   -0.123  0.002  0.036
 H          0.317  0.016  0.000   -0.000  0.006 -0.003    0.123 -0.002  0.036
 TransDip  -0.016  0.003 -0.000    0.000  0.000 -0.000   -0.000  0.000 -0.027

 Mode:                13                     14                     15
 Frequency:       939.90                 972.10                1014.26
 Force Cnst:      0.7189                 0.7039                 3.5197
 Red. Mass:       1.3812                 1.2642                 5.8070
 IR Active:          YES                    YES                    YES
 IR Intens:        0.006                  0.069                  0.008
 Raman Active:       YES                    YES                    YES
               X      Y      Z        X      Y      Z        X      Y      Z
 C          0.000 -0.000  0.097    0.000 -0.000  0.080   -0.035  0.072  0.000
 C          0.000  0.000 -0.086   -0.000 -0.000 -0.034   -0.172 -0.320 -0.000
 C         -0.000  0.000 -0.001   -0.000 -0.000 -0.005    0.022 -0.018 -0.000
 C          0.000 -0.000  0.088   -0.000  0.000 -0.034   -0.187  0.357  0.000
 C          0.000  0.000 -0.097   -0.000 -0.000  0.079   -0.018 -0.053 -0.000
 C         -0.000 -0.000 -0.002    0.000  0.000 -0.091    0.360 -0.011  0.000
 H         -0.000  0.000 -0.520   -0.000  0.000 -0.511   -0.033  0.057 -0.000
 H         -0.000  0.000  0.449   -0.000 -0.000  0.264   -0.092 -0.376  0.000
 H         -0.000 -0.000 -0.464    0.000 -0.000  0.265   -0.127  0.407 -0.000
 H         -0.000 -0.000  0.529    0.000  0.000 -0.507    0.050 -0.073  0.000
 H         -0.000  0.000  0.009   -0.000  0.000  0.564    0.371 -0.052 -0.000
 C          0.000  0.000  0.002    0.000 -0.000  0.002    0.015 -0.040  0.000
 H          0.000 -0.000 -0.006   -0.000 -0.000 -0.018   -0.207  0.050 -0.000
 H          0.004 -0.002 -0.003    0.019 -0.002 -0.007    0.110  0.064  0.018
 H         -0.004  0.002 -0.003   -0.019  0.002 -0.007    0.110  0.064 -0.018
 TransDip  -0.000  0.000  0.002   -0.000  0.000  0.008   -0.003  0.000 -0.000

 Mode:                16                     17                     18
 Frequency:      1042.56                1049.81                1116.91
 Force Cnst:      0.9654                 1.3994                 1.0519
 Red. Mass:       1.5074                 2.1551                 1.4311
 IR Active:          YES                    YES                    YES
 IR Intens:        1.971                  2.057                  2.703
 Raman Active:       YES                    YES                    YES
               X      Y      Z        X      Y      Z        X      Y      Z
 C          0.031 -0.035  0.000    0.027 -0.181 -0.000    0.000 -0.000  0.001
 C         -0.051 -0.096 -0.000   -0.054  0.062  0.000   -0.000 -0.000  0.027
 C          0.000  0.073  0.000   -0.022 -0.003  0.000   -0.000  0.000 -0.124
 C          0.023 -0.050 -0.000   -0.055 -0.058 -0.000    0.000 -0.000  0.026
 C         -0.040 -0.046 -0.000    0.027  0.184  0.000   -0.000 -0.000 -0.001
 C          0.030  0.056  0.000    0.148 -0.001  0.000   -0.000  0.000 -0.003
 H          0.179  0.046  0.000   -0.305 -0.388  0.000    0.000  0.000 -0.014
 H         -0.131 -0.061 -0.000   -0.370  0.233 -0.000   -0.000  0.000 -0.106
 H          0.104 -0.010  0.000   -0.377 -0.239  0.000    0.000  0.000 -0.074
 H         -0.197  0.040 -0.000   -0.297  0.381 -0.000   -0.000  0.000 -0.020
 H          0.029  0.259 -0.000    0.163 -0.006 -0.000   -0.000  0.000  0.009
 C          0.011  0.123 -0.000    0.021 -0.001 -0.000   -0.000 -0.000  0.147
 H          0.653 -0.140 -0.000    0.022 -0.001  0.000   -0.000 -0.000 -0.322
 H         -0.341 -0.220 -0.052    0.029  0.000 -0.002    0.618 -0.086 -0.175
 H         -0.341 -0.220  0.052    0.029  0.000  0.002   -0.618  0.086 -0.175
 TransDip   0.042  0.016 -0.000   -0.046 -0.000  0.000   -0.000  0.000 -0.053

 Mode:                19                     20                     21
 Frequency:      1118.26                1184.94                1199.71
 Force Cnst:      1.0128                 0.9074                 0.9600
 Red. Mass:       1.3747                 1.0968                 1.1321
 IR Active:          YES                    YES                    YES
 IR Intens:        4.419                  0.078                  0.308
 Raman Active:       YES                    YES                    YES
               X      Y      Z        X      Y      Z        X      Y      Z
 C          0.049 -0.041 -0.000   -0.034 -0.022 -0.000   -0.043 -0.031 -0.000
 C         -0.089 -0.007 -0.000   -0.004 -0.008 -0.000    0.049 -0.026 -0.000
 C         -0.004  0.009  0.000    0.005 -0.004  0.000   -0.005  0.001  0.000
 C          0.093 -0.012 -0.000    0.004 -0.008 -0.000    0.045  0.025  0.000
 C         -0.045 -0.033  0.000    0.033 -0.025 -0.000   -0.041  0.030  0.000
 C         -0.005  0.059  0.000    0.000  0.067  0.000   -0.009  0.001  0.000
 H          0.218  0.053  0.000   -0.409 -0.243  0.000   -0.431 -0.258  0.000
 H         -0.447  0.188  0.000    0.111 -0.072  0.000    0.448 -0.247  0.000
 H          0.464  0.196  0.000   -0.130 -0.086  0.000    0.426  0.243 -0.000
 H         -0.226  0.065  0.000    0.415 -0.244  0.000   -0.417  0.245 -0.000
 H         -0.007  0.418 -0.000   -0.004  0.701 -0.000   -0.009  0.004 -0.000
 C         -0.002 -0.076 -0.000   -0.002 -0.005 -0.000    0.001  0.000 -0.000
 H         -0.325  0.057  0.000   -0.027  0.005 -0.000    0.007 -0.001  0.000
 H          0.173  0.113  0.036    0.009  0.005  0.001   -0.001  0.006  0.003
 H          0.173  0.113 -0.036    0.009  0.005 -0.001   -0.001  0.006 -0.003
 TransDip  -0.023  0.063  0.000   -0.004 -0.008  0.000   -0.018 -0.001  0.000

 Mode:                22                     23                     24
 Frequency:      1252.19                1336.97                1351.30
 Force Cnst:      2.8013                 5.7463                 1.4891
 Red. Mass:       3.0322                 5.4563                 1.3841
 IR Active:          YES                    YES                    YES
 IR Intens:        0.671                  0.774                  0.151
 Raman Active:       YES                    YES                    YES
               X      Y      Z        X      Y      Z        X      Y      Z
 C         -0.094  0.071  0.000   -0.208 -0.146  0.000    0.009 -0.014 -0.000
 C          0.075 -0.018 -0.000    0.177 -0.118  0.000   -0.094  0.033  0.000
 C          0.352  0.019  0.000   -0.029  0.343 -0.000    0.002  0.071  0.000
 C          0.060  0.006  0.000   -0.193 -0.130 -0.000    0.093  0.032  0.000
 C         -0.077 -0.085 -0.000    0.223 -0.129  0.000   -0.008 -0.013 -0.000
 C          0.017  0.010  0.000   -0.002  0.220  0.000    0.000 -0.089 -0.000
 H         -0.312 -0.047  0.000    0.377  0.193 -0.000    0.301  0.155 -0.000
 H         -0.354  0.236  0.000    0.113 -0.085  0.000    0.475 -0.284 -0.000
 H         -0.325 -0.231  0.000   -0.065 -0.055 -0.000   -0.469 -0.291  0.000
 H         -0.381  0.078 -0.000   -0.311  0.174  0.000   -0.302  0.151 -0.000
 H          0.010 -0.024 -0.000    0.001 -0.129 -0.000   -0.003  0.324  0.000
 C         -0.151 -0.003 -0.000    0.016 -0.085 -0.000   -0.003 -0.035 -0.000
 H         -0.309  0.047 -0.000   -0.285  0.050  0.000   -0.080  0.003  0.000
 H         -0.249 -0.029  0.022    0.182  0.197  0.094    0.048  0.063  0.032
 H         -0.249 -0.029 -0.022    0.182  0.197 -0.094    0.048  0.063 -0.032
 TransDip   0.026 -0.005  0.000   -0.025 -0.013  0.000   -0.011 -0.006 -0.000

 Mode:                25                     26                     27
 Frequency:      1457.71                1487.03                1530.19
 Force Cnst:      1.5715                 2.5888                 1.4418
 Red. Mass:       1.2552                 1.9871                 1.0451
 IR Active:          YES                    YES                    YES
 IR Intens:        0.033                  1.297                  4.671
 Raman Active:       YES                    YES                    YES
               X      Y      Z        X      Y      Z        X      Y      Z
 C         -0.013  0.003  0.000   -0.129 -0.000  0.000   -0.000  0.000 -0.000
 C          0.011 -0.003 -0.000    0.078  0.055  0.000    0.000 -0.000  0.000
 C          0.022 -0.004 -0.000   -0.004 -0.141  0.000   -0.000 -0.000 -0.016
 C          0.002  0.008  0.000   -0.084  0.052 -0.000   -0.000  0.000  0.003
 C          0.004 -0.008  0.000    0.133  0.002  0.000    0.000  0.000  0.000
 C         -0.000 -0.001  0.000    0.000 -0.107 -0.000   -0.000 -0.000 -0.000
 H         -0.005  0.008 -0.000    0.275  0.253  0.000    0.000  0.000 -0.001
 H         -0.034  0.019 -0.000   -0.082  0.161 -0.000   -0.000  0.000  0.006
 H         -0.025 -0.004  0.000    0.104  0.175  0.000    0.000  0.000 -0.003
 H         -0.042  0.019 -0.000   -0.274  0.250  0.000   -0.000  0.000 -0.004
 H         -0.001  0.025  0.000   -0.004  0.564 -0.000   -0.000  0.000  0.002
 C         -0.146  0.017 -0.000    0.023  0.062  0.000   -0.000 -0.000 -0.056
 H          0.460 -0.215  0.000   -0.110  0.097 -0.000    0.000  0.000  0.721
 H          0.533  0.004 -0.269   -0.058 -0.284 -0.162    0.314  0.370  0.052
 H          0.533  0.004  0.269   -0.058 -0.284  0.162   -0.314 -0.370  0.052
 TransDip   0.004 -0.004 -0.000    0.009  0.035 -0.000   -0.000  0.000  0.069

 Mode:                28                     29                     30
 Frequency:      1532.07                1540.26                1637.18
 Force Cnst:      1.6153                 3.1127                 8.2174
 Red. Mass:       1.1680                 2.2269                 5.2034
 IR Active:          YES                    YES                    YES
 IR Intens:        8.766                 12.918                  0.410
 Raman Active:       YES                    YES                    YES
               X      Y      Z        X      Y      Z        X      Y      Z
 C         -0.012  0.039  0.000   -0.122 -0.098  0.000   -0.075 -0.202  0.000
 C          0.050 -0.019 -0.000   -0.053  0.096 -0.000   -0.083  0.176  0.000
 C         -0.024 -0.041  0.000    0.152 -0.016  0.000   -0.001 -0.292  0.000
 C         -0.012  0.024 -0.000   -0.073 -0.094  0.000    0.096  0.184 -0.000
 C          0.042 -0.001  0.000   -0.105  0.110  0.000    0.066 -0.201 -0.000
 C         -0.016 -0.057  0.000    0.105 -0.019 -0.000    0.000  0.352  0.000
 H         -0.045  0.028  0.000    0.423  0.215 -0.000    0.236 -0.038  0.000
 H         -0.157  0.095 -0.000    0.357 -0.114  0.000    0.267 -0.009 -0.000
 H         -0.029  0.022 -0.000    0.409  0.169 -0.000   -0.287 -0.025 -0.000
 H         -0.112  0.090  0.000    0.405 -0.169  0.000   -0.233 -0.050 -0.000
 H         -0.022  0.174 -0.000    0.125  0.059  0.000    0.005 -0.465 -0.000
 C         -0.015 -0.042  0.000   -0.048 -0.014  0.000   -0.003  0.021 -0.000
 H          0.422 -0.197 -0.000    0.129 -0.078 -0.000    0.246 -0.080  0.000
 H         -0.105  0.470  0.328   -0.065  0.170  0.115   -0.115  0.105  0.097
 H         -0.105  0.470 -0.328   -0.065  0.170 -0.115   -0.115  0.105 -0.097
 TransDip  -0.016  0.093 -0.000    0.113  0.021 -0.000    0.007 -0.019 -0.000

 Mode:                31                     32                     33
 Frequency:      1653.37                2918.89                2979.78
 Force Cnst:      9.1933                 5.1891                 5.7653
 Red. Mass:       5.7080                 1.0337                 1.1020
 IR Active:          YES                    YES                    YES
 IR Intens:        6.729                 31.953                 22.563
 Raman Active:       YES                    YES                    YES
               X      Y      Z        X      Y      Z        X      Y      Z
 C         -0.272 -0.073  0.000   -0.000  0.000 -0.000   -0.000 -0.000 -0.000
 C          0.296 -0.086 -0.000    0.001  0.000 -0.000    0.000  0.000 -0.000
 C         -0.235  0.009 -0.000    0.000 -0.000  0.000    0.000 -0.000 -0.001
 C          0.295  0.083 -0.000    0.001  0.000 -0.000   -0.000  0.000  0.001
 C         -0.276  0.075 -0.000   -0.001 -0.000  0.000    0.000 -0.000  0.000
 C          0.142 -0.004 -0.000   -0.000 -0.000  0.000   -0.000  0.000 -0.000
 H          0.242  0.239 -0.000   -0.000 -0.001  0.000   -0.000  0.000 -0.000
 H         -0.293  0.243  0.000   -0.004 -0.006  0.000   -0.000 -0.000 -0.000
 H         -0.299 -0.262  0.000   -0.004  0.005  0.000    0.000 -0.000 -0.002
 H          0.251 -0.234  0.000   -0.000  0.001  0.000    0.000  0.000 -0.000
 H          0.157  0.007 -0.000    0.001 -0.000  0.000   -0.000  0.000 -0.001
 C          0.040  0.001 -0.000   -0.048  0.005  0.000   -0.000 -0.000 -0.093
 H         -0.026  0.027  0.000    0.189  0.506 -0.000    0.000  0.000 -0.019
 H          0.046 -0.043 -0.034    0.188 -0.284  0.487    0.237 -0.345  0.566
 H          0.046 -0.043  0.034    0.188 -0.284 -0.487   -0.237  0.345  0.566
 TransDip  -0.083 -0.001  0.000   -0.181  0.003  0.000   -0.000 -0.000 -0.152

 Mode:                34                     35                     36
 Frequency:      2984.80                3217.91                3220.77
 Force Cnst:      5.7881                 6.6209                 6.6473
 Red. Mass:       1.1027                 1.0852                 1.0876
 IR Active:          YES                    YES                    YES
 IR Intens:       20.102                  6.216                  3.110
 Raman Active:       YES                    YES                    YES
               X      Y      Z        X      Y      Z        X      Y      Z
 C         -0.000 -0.000 -0.000    0.017 -0.029 -0.000   -0.016  0.030  0.000
 C          0.001  0.001  0.000    0.015  0.030  0.000   -0.027 -0.049 -0.000
 C          0.001 -0.002  0.000    0.002  0.000 -0.000   -0.000  0.002 -0.000
 C         -0.001  0.000 -0.000    0.022 -0.042 -0.000    0.025 -0.043 -0.000
 C          0.000 -0.000 -0.000    0.019  0.034  0.000    0.010  0.020  0.000
 C         -0.000  0.000  0.000   -0.032 -0.000 -0.000    0.006 -0.001  0.000
 H         -0.001  0.001  0.000   -0.202  0.346  0.000    0.201 -0.346 -0.000
 H         -0.007 -0.008  0.000   -0.187 -0.341 -0.000    0.315  0.571  0.000
 H          0.004 -0.003  0.000   -0.273  0.481  0.000   -0.286  0.501  0.000
 H          0.000  0.001  0.000   -0.232 -0.410 -0.000   -0.128 -0.229 -0.000
 H         -0.000  0.000  0.000    0.391  0.002  0.000   -0.074  0.000 -0.000
 C         -0.005 -0.093  0.000    0.000  0.000 -0.000   -0.000 -0.001  0.000
 H          0.308  0.780 -0.000   -0.004 -0.003  0.000    0.005  0.008 -0.000
 H         -0.128  0.166 -0.316   -0.002  0.001 -0.003   -0.001  0.001 -0.003
 H         -0.128  0.166  0.316   -0.002  0.001  0.003   -0.001  0.001  0.003
 TransDip  -0.017 -0.143  0.000    0.079 -0.009  0.000   -0.008 -0.056  0.000

 Mode:                37                     38                     39
 Frequency:      3230.40                3239.54                3250.08
 Force Cnst:      6.7037                 6.7631                 6.8296
 Red. Mass:       1.0903                 1.0938                 1.0974
 IR Active:          YES                    YES                    YES
 IR Intens:       14.417                 45.872                 17.520
 Raman Active:       YES                    YES                    YES
               X      Y      Z        X      Y      Z        X      Y      Z
 C          0.010 -0.012 -0.000    0.029 -0.046 -0.000   -0.022  0.040  0.000
 C         -0.021 -0.038 -0.000   -0.017 -0.027 -0.000    0.011  0.016  0.000
 C         -0.002  0.000  0.000   -0.000  0.002 -0.000    0.001 -0.000 -0.000
 C         -0.020  0.035  0.000    0.016 -0.024 -0.000    0.011 -0.015 -0.000
 C          0.013  0.017  0.000   -0.028 -0.047 -0.000   -0.021 -0.041 -0.000
 C         -0.057 -0.000 -0.000   -0.001  0.004  0.000   -0.057 -0.000 -0.000
 H         -0.097  0.158  0.000   -0.315  0.533  0.000    0.253 -0.436 -0.000
 H          0.240  0.435  0.000    0.171  0.304  0.000   -0.106 -0.186 -0.000
 H          0.227 -0.398 -0.000   -0.159  0.273  0.000   -0.103  0.175  0.000
 H         -0.123 -0.209 -0.000    0.309  0.539  0.000    0.250  0.443  0.000
 H          0.665  0.004  0.000    0.011 -0.005  0.000    0.627  0.004  0.000
 C         -0.000 -0.000  0.000   -0.000 -0.000 -0.000    0.000  0.000 -0.000
 H          0.005  0.005 -0.000    0.002  0.003 -0.000   -0.003 -0.003  0.000
 H          0.003 -0.000  0.002   -0.000  0.000 -0.001   -0.002  0.001 -0.002
 H          0.003 -0.000 -0.002   -0.000  0.000  0.001   -0.002  0.001  0.002
 TransDip  -0.122  0.002  0.000   -0.003 -0.217  0.000   -0.134 -0.000 -0.000

 STANDARD THERMODYNAMIC QUANTITIES AT   298.15 K  AND     1.00 ATM

   This Molecule has  0 Imaginary Frequencies
   Zero point vibrational energy:       80.644 kcal/mol

   Atom    1 Element C  Has Mass   12.00000
   Atom    2 Element C  Has Mass   12.00000
   Atom    3 Element C  Has Mass   12.00000
   Atom    4 Element C  Has Mass   12.00000
   Atom    5 Element C  Has Mass   12.00000
   Atom    6 Element C  Has Mass   12.00000
   Atom    7 Element H  Has Mass    1.00783
   Atom    8 Element H  Has Mass    1.00783
   Atom    9 Element H  Has Mass    1.00783
   Atom   10 Element H  Has Mass    1.00783
   Atom   11 Element H  Has Mass    1.00783
   Atom   12 Element C  Has Mass   12.00000
   Atom   13 Element H  Has Mass    1.00783
   Atom   14 Element H  Has Mass    1.00783
   Atom   15 Element H  Has Mass    1.00783
   Molecular Mass:    92.062640 amu
   Principal axes and moments of inertia in amu*Bohr^2:
                             1           2           3
    Eigenvalues --      330.04015   712.03835  1030.29957
          X               1.00000    -0.00032     0.00000
          Y               0.00032     1.00000     0.00000
          Z              -0.00000    -0.00000     1.00000
   Rotational Symmetry Number is   1
   The Molecule is an Asymmetric Top
   Translational Enthalpy:        0.889 kcal/mol
   Rotational Enthalpy:           0.889 kcal/mol
   Vibrational Enthalpy:         82.444 kcal/mol
   gas constant (RT):             0.592 kcal/mol
   Translational Entropy:        39.471  cal/mol.K
   Rotational Entropy:           26.984  cal/mol.K
   Vibrational Entropy:           8.813  cal/mol.K

   Total Enthalpy:               84.813 kcal/mol
   Total Entropy:                75.268  cal/mol.K
 Total job time:  132.75s(wall), 131.76s(cpu) 
 Mon Aug  2 11:38:06 2021

        *************************************************************
        *                                                           *
        *  Thank you very much for using Q-Chem.  Have a nice day.  *
        *                                                           *
        *************************************************************


